﻿<?xml version="1.0" encoding="utf-8"?>
<svg version="1.1" xmlns:xlink="http://www.w3.org/1999/xlink" width="12px" height="12px" viewBox="37 60  12 12" xmlns="http://www.w3.org/2000/svg">
  <path d="M 37.5 60.5  L 48.5 60.5  L 48.5 71.5  L 37.5 71.5  L 37.5 60.5  Z " fill-rule="nonzero" fill="#f0f0f0" stroke="none" />
  <path d="M 37.5 60.5  L 48.5 60.5  L 48.5 71.5  L 37.5 71.5  L 37.5 60.5  Z " stroke-width="1" stroke="#797979" fill="none" />
  <path d="M 39.5714285714286 66  L 42.1428571428571 68.5714285714286  " stroke-width="2.57142857142857" stroke="#797979" fill="none" />
  <path d="M 42.1428571428571 68.5714285714286  L 46.4285714285714 62.5714285714286  " stroke-width="2.57142857142857" stroke="#797979" fill="none" />
</svg>