﻿<?xml version="1.0" encoding="utf-8"?>
<svg version="1.1" xmlns:xlink="http://www.w3.org/1999/xlink" width="56px" height="25px" xmlns="http://www.w3.org/2000/svg">
  <g transform="matrix(1 0 0 1 -667 -14 )">
    <path d="M 668 19  A 4 4 0 0 1 672 15 L 718 15  A 4 4 0 0 1 722 19 L 722 34  A 4 4 0 0 1 718 38 L 672 38  A 4 4 0 0 1 668 34 L 668 19  Z " fill-rule="nonzero" fill="#099775" stroke="none" />
  </g>
</svg>