﻿<?xml version="1.0" encoding="utf-8"?>
<svg version="1.1" xmlns:xlink="http://www.w3.org/1999/xlink" width="66px" height="10px" preserveAspectRatio="xMinYMid meet" viewBox="419 146  66 8" xmlns="http://www.w3.org/2000/svg">
  <path d="M 579 130  L 485 130  A 5 5 0 0 0 480 135 L 480 145  A 5 5 0 0 1 475 150 L 419 150  " stroke-width="2" stroke="#0099cc" fill="none" />
</svg>