﻿<?xml version="1.0" encoding="utf-8"?>
<svg version="1.1" xmlns:xlink="http://www.w3.org/1999/xlink" width="58px" height="10px" preserveAspectRatio="xMinYMid meet" viewBox="421 65  58 8" xmlns="http://www.w3.org/2000/svg">
  <path d="M 579 53  L 479 53  A 5 5 0 0 0 474 58 L 474 64  A 5 5 0 0 1 469 69 L 421 69  " stroke-width="2" stroke="#0099cc" fill="none" />
</svg>