﻿<?xml version="1.0" encoding="utf-8"?>
<svg version="1.1" xmlns:xlink="http://www.w3.org/1999/xlink" width="103px" height="10px" preserveAspectRatio="xMinYMid meet" viewBox="476 125  103 8" xmlns="http://www.w3.org/2000/svg">
  <path d="M 579 129  L 486 129  A 5 5 0 0 1 481 124 L 481 118  A 5 5 0 0 0 476 113 L 417 113  " stroke-width="2" stroke="#0099cc" fill="none" />
</svg>