﻿<?xml version="1.0" encoding="utf-8"?>
<svg version="1.1" xmlns:xlink="http://www.w3.org/1999/xlink" width="10px" height="13px" xmlns="http://www.w3.org/2000/svg">
  <g transform="matrix(1 0 0 1 -146 -26 )">
    <path d="M 0.769230769230769 9.98214285714286  L 0.769230769230769 12.0714285714286  L 2.5 12.0714285714286  L 2.5 9.98214285714286  L 0.769230769230769 9.98214285714286  Z M 2.88461538461538 9.98214285714286  L 2.88461538461538 12.0714285714286  L 4.80769230769231 12.0714285714286  L 4.80769230769231 9.98214285714286  L 2.88461538461538 9.98214285714286  Z M 0.769230769230769 7.19642857142857  L 0.769230769230769 9.51785714285714  L 2.5 9.51785714285714  L 2.5 7.19642857142857  L 0.769230769230769 7.19642857142857  Z M 2.88461538461538 7.19642857142857  L 2.88461538461538 9.51785714285714  L 4.80769230769231 9.51785714285714  L 4.80769230769231 7.19642857142857  L 2.88461538461538 7.19642857142857  Z M 0.769230769230769 4.64285714285714  L 0.769230769230769 6.73214285714286  L 2.5 6.73214285714286  L 2.5 4.64285714285714  L 0.769230769230769 4.64285714285714  Z M 5.19230769230769 9.98214285714286  L 5.19230769230769 12.0714285714286  L 7.11538461538462 12.0714285714286  L 7.11538461538462 9.98214285714286  L 5.19230769230769 9.98214285714286  Z M 2.88461538461538 4.64285714285714  L 2.88461538461538 6.73214285714286  L 4.80769230769231 6.73214285714286  L 4.80769230769231 4.64285714285714  L 2.88461538461538 4.64285714285714  Z M 7.5 9.98214285714286  L 7.5 12.0714285714286  L 9.23076923076923 12.0714285714286  L 9.23076923076923 9.98214285714286  L 7.5 9.98214285714286  Z M 5.19230769230769 7.19642857142857  L 5.19230769230769 9.51785714285714  L 7.11538461538462 9.51785714285714  L 7.11538461538462 7.19642857142857  L 5.19230769230769 7.19642857142857  Z M 3.01983173076923 3.41322544642857  C 3.05789262820513 3.36728050595238  3.07692307692308 3.31287202380952  3.07692307692308 3.25  L 3.07692307692308 1.16071428571429  C 3.07692307692308 1.09784226190476  3.05789262820513 1.0434337797619  3.01983173076923 0.997488839285714  C 2.98177083333333 0.951543898809523  2.93669871794872 0.928571428571428  2.88461538461538 0.928571428571428  L 2.5 0.928571428571428  C 2.44791666666667 0.928571428571428  2.40284455128205 0.951543898809523  2.36478365384615 0.997488839285714  C 2.32672275641026 1.0434337797619  2.30769230769231 1.09784226190476  2.30769230769231 1.16071428571429  L 2.30769230769231 3.25  C 2.30769230769231 3.31287202380952  2.32672275641026 3.36728050595238  2.36478365384615 3.41322544642857  C 2.40284455128205 3.45917038690476  2.44791666666667 3.48214285714286  2.5 3.48214285714286  L 2.88461538461538 3.48214285714286  C 2.93669871794872 3.48214285714286  2.98177083333333 3.45917038690476  3.01983173076923 3.41322544642857  Z M 7.5 7.19642857142857  L 7.5 9.51785714285714  L 9.23076923076923 9.51785714285714  L 9.23076923076923 7.19642857142857  L 7.5 7.19642857142857  Z M 5.19230769230769 4.64285714285714  L 5.19230769230769 6.73214285714286  L 7.11538461538462 6.73214285714286  L 7.11538461538462 4.64285714285714  L 5.19230769230769 4.64285714285714  Z M 7.5 4.64285714285714  L 7.5 6.73214285714286  L 9.23076923076923 6.73214285714286  L 9.23076923076923 4.64285714285714  L 7.5 4.64285714285714  Z M 7.63521634615385 3.41322544642857  C 7.67327724358974 3.36728050595238  7.69230769230769 3.31287202380952  7.69230769230769 3.25  L 7.69230769230769 1.16071428571429  C 7.69230769230769 1.09784226190476  7.67327724358974 1.0434337797619  7.63521634615385 0.997488839285714  C 7.59715544871795 0.951543898809523  7.55208333333333 0.928571428571428  7.5 0.928571428571428  L 7.11538461538462 0.928571428571428  C 7.06330128205128 0.928571428571428  7.01822916666667 0.951543898809523  6.98016826923077 0.997488839285714  C 6.94210737179487 1.0434337797619  6.92307692307692 1.09784226190476  6.92307692307692 1.16071428571429  L 6.92307692307692 3.25  C 6.92307692307692 3.31287202380952  6.94210737179487 3.36728050595238  6.98016826923077 3.41322544642857  C 7.01822916666667 3.45917038690476  7.06330128205128 3.48214285714286  7.11538461538462 3.48214285714286  L 7.5 3.48214285714286  C 7.55208333333333 3.48214285714286  7.59715544871795 3.45917038690476  7.63521634615385 3.41322544642857  Z M 9.77163461538461 2.1328125  C 9.92387820512821 2.31659226190476  10 2.53422619047619  10 2.78571428571429  L 10 12.0714285714286  C 10 12.3229166666667  9.92387820512821 12.5405505952381  9.77163461538461 12.7243303571429  C 9.61939102564103 12.9081101190476  9.43910256410257 13  9.23076923076923 13  L 0.769230769230769 13  C 0.560897435897436 13  0.380608974358974 12.9081101190476  0.228365384615385 12.7243303571429  C 0.0761217948717949 12.5405505952381  0 12.3229166666667  0 12.0714285714286  L 0 2.78571428571429  C 0 2.53422619047619  0.0761217948717949 2.31659226190476  0.228365384615385 2.1328125  C 0.380608974358974 1.94903273809524  0.560897435897436 1.85714285714286  0.769230769230769 1.85714285714286  L 1.53846153846154 1.85714285714286  L 1.53846153846154 1.16071428571429  C 1.53846153846154 0.841517857142858  1.63261217948718 0.568266369047618  1.82091346153846 0.340959821428572  C 2.00921474358974 0.113653273809524  2.23557692307692 0  2.5 0  L 2.88461538461538 0  C 3.14903846153846 0  3.37540064102564 0.113653273809524  3.56370192307692 0.340959821428572  C 3.75200320512821 0.568266369047618  3.84615384615385 0.841517857142858  3.84615384615385 1.16071428571429  L 3.84615384615385 1.85714285714286  L 6.15384615384615 1.85714285714286  L 6.15384615384615 1.16071428571429  C 6.15384615384615 0.841517857142858  6.2479967948718 0.568266369047618  6.43629807692308 0.340959821428572  C 6.62459935897436 0.113653273809524  6.85096153846154 0  7.11538461538462 0  L 7.5 0  C 7.76442307692308 0  7.99078525641026 0.113653273809524  8.17908653846154 0.340959821428572  C 8.36738782051282 0.568266369047618  8.46153846153846 0.841517857142858  8.46153846153846 1.16071428571429  L 8.46153846153846 1.85714285714286  L 9.23076923076923 1.85714285714286  C 9.43910256410257 1.85714285714286  9.61939102564103 1.94903273809524  9.77163461538461 2.1328125  Z " fill-rule="nonzero" fill="#8c8c8c" stroke="none" transform="matrix(1 0 0 1 146 26 )" />
  </g>
</svg>