﻿<?xml version="1.0" encoding="utf-8"?>
<svg version="1.1" xmlns:xlink="http://www.w3.org/1999/xlink" width="12px" height="12px" viewBox="12 44  12 12" xmlns="http://www.w3.org/2000/svg">
  <path d="M 18 44  C 21.36 44  24 46.64  24 50  C 24 53.36  21.36 56  18 56  C 14.64 56  12 53.36  12 50  C 12 46.64  14.64 44  18 44  Z " fill-rule="nonzero" fill="#ffffff" stroke="none" />
  <path d="M 18 44.5  C 21.08 44.5  23.5 46.92  23.5 50  C 23.5 53.08  21.08 55.5  18 55.5  C 14.92 55.5  12.5 53.08  12.5 50  C 12.5 46.92  14.92 44.5  18 44.5  Z " stroke-width="1" stroke="#797979" fill="none" />
</svg>