﻿<?xml version="1.0" encoding="utf-8"?>
<svg version="1.1" xmlns:xlink="http://www.w3.org/1999/xlink" width="18px" height="18px" xmlns="http://www.w3.org/2000/svg">
  <g transform="matrix(1 0 0 1 -302 -86 )">
    <path d="M 14.6122159090909 8.296875  C 14.6889204545455 8.37357954545454  14.7272727272727 8.47159090909091  14.7272727272727 8.59090909090909  L 14.7272727272727 9.40909090909091  C 14.7272727272727 9.52840909090909  14.6889204545455 9.62642045454546  14.6122159090909 9.703125  C 14.5355113636364 9.77982954545454  14.4375 9.81818181818182  14.3181818181818 9.81818181818182  L 3.68181818181818 9.81818181818182  C 3.5625 9.81818181818182  3.46448863636364 9.77982954545454  3.38778409090909 9.703125  C 3.31107954545455 9.62642045454546  3.27272727272727 9.52840909090909  3.27272727272727 9.40909090909091  L 3.27272727272727 8.59090909090909  C 3.27272727272727 8.47159090909091  3.31107954545455 8.37357954545454  3.38778409090909 8.296875  C 3.46448863636364 8.22017045454546  3.5625 8.18181818181818  3.68181818181818 8.18181818181818  L 14.3181818181818 8.18181818181818  C 14.4375 8.18181818181818  14.5355113636364 8.22017045454546  14.6122159090909 8.296875  Z M 15.7627840909091 15.7627840909091  C 16.1633522727273 15.3622159090909  16.3636363636364 14.8806818181818  16.3636363636364 14.3181818181818  L 16.3636363636364 3.68181818181818  C 16.3636363636364 3.11931818181818  16.1633522727273 2.63778409090909  15.7627840909091 2.23721590909091  C 15.3622159090909 1.83664772727273  14.8806818181818 1.63636363636364  14.3181818181818 1.63636363636364  L 3.68181818181818 1.63636363636364  C 3.11931818181818 1.63636363636364  2.63778409090909 1.83664772727273  2.23721590909091 2.23721590909091  C 1.83664772727273 2.63778409090909  1.63636363636364 3.11931818181818  1.63636363636364 3.68181818181818  L 1.63636363636364 14.3181818181818  C 1.63636363636364 14.8806818181818  1.83664772727273 15.3622159090909  2.23721590909091 15.7627840909091  C 2.63778409090909 16.1633522727273  3.11931818181818 16.3636363636364  3.68181818181818 16.3636363636364  L 14.3181818181818 16.3636363636364  C 14.8806818181818 16.3636363636364  15.3622159090909 16.1633522727273  15.7627840909091 15.7627840909091  Z M 16.9197443181818 1.08025568181818  C 17.6399147727273 1.80042613636364  18 2.66761363636363  18 3.68181818181818  L 18 14.3181818181818  C 18 15.3323863636364  17.6399147727273 16.1995738636364  16.9197443181818 16.9197443181818  C 16.1995738636364 17.6399147727273  15.3323863636364 18  14.3181818181818 18  L 3.68181818181818 18  C 2.66761363636364 18  1.80042613636364 17.6399147727273  1.08025568181818 16.9197443181818  C 0.360085227272727 16.1995738636364  0 15.3323863636364  0 14.3181818181818  L 0 3.68181818181818  C 0 2.66761363636363  0.360085227272727 1.80042613636364  1.08025568181818 1.08025568181818  C 1.80042613636364 0.360085227272726  2.66761363636364 0  3.68181818181818 0  L 14.3181818181818 0  C 15.3323863636364 0  16.1995738636364 0.360085227272726  16.9197443181818 1.08025568181818  Z " fill-rule="nonzero" fill="#000000" stroke="none" transform="matrix(1 0 0 1 302 86 )" />
  </g>
</svg>