﻿<?xml version="1.0" encoding="utf-8"?>
<svg version="1.1" xmlns:xlink="http://www.w3.org/1999/xlink" width="91px" height="29px" xmlns="http://www.w3.org/2000/svg">
  <g transform="matrix(1 0 0 1 -811 -49 )">
    <path d="M 0 23.2  L 0 5.8  C 0 2.552  2.70540540540546 0  6.14864864864865 0  L 52.8783783783784 0  L 84.8513513513514 0  C 88.2945945945945 0  91 2.552  91 5.8  L 91 23.2  C 91 26.448  88.2945945945945 29  84.8513513513514 29  L 6.14864864864865 29  C 2.70540540540546 29  0 26.448  0 23.2  Z " fill-rule="nonzero" fill="#169bd5" stroke="none" transform="matrix(1 0 0 1 811 49 )" />
  </g>
</svg>