﻿<?xml version="1.0" encoding="utf-8"?>
<svg version="1.1" xmlns:xlink="http://www.w3.org/1999/xlink" width="10px" height="79px" preserveAspectRatio="xMidYMin meet" viewBox="439 86  8 79" xmlns="http://www.w3.org/2000/svg">
  <path d="M 559 160  L 448 160  A 5 5 0 0 1 443 155 L 443 96  A 5 5 0 0 0 438 91 L 409 91  " stroke-width="2" stroke="#0099cc" fill="none" />
</svg>