﻿<?xml version="1.0" encoding="utf-8"?>
<svg version="1.1" xmlns:xlink="http://www.w3.org/1999/xlink" width="10px" height="43px" preserveAspectRatio="xMidYMin meet" viewBox="439 122  8 43" xmlns="http://www.w3.org/2000/svg">
  <path d="M 559 160  L 448 160  A 5 5 0 0 1 443 155 L 443 132  A 5 5 0 0 0 438 127 L 409 127  " stroke-width="2" stroke="#0099cc" fill="none" />
</svg>