﻿<?xml version="1.0" encoding="utf-8"?>
<svg version="1.1" xmlns:xlink="http://www.w3.org/1999/xlink" width="74px" height="25px" xmlns="http://www.w3.org/2000/svg">
  <g transform="matrix(1 0 0 1 -543 -5 )">
    <path d="M 544 10  A 4 4 0 0 1 548 6 L 612 6  A 4 4 0 0 1 616 10 L 616 25  A 4 4 0 0 1 612 29 L 548 29  A 4 4 0 0 1 544 25 L 544 10  Z " fill-rule="nonzero" fill="#099775" stroke="none" />
  </g>
</svg>